{"photos":{"page":1,"pages":17,"perpage":25,"total":"412","photo":[{"id":"15202117008","owner":"123447487@N04","secret":"726a7c3c95","server":"2941","farm":3,"title":"JAMAICA NOW: Cops implicated ... Manhunt launched ...PNP Conference [Video]","ispublic":1,"isfriend":0,"isfamily":0},{"id":"14837265772","owner":"99029781@N03","secret":"ba521a9af1","server":"3904","farm":4,"title":"62nd Denbigh Agricultural, Industrial and Food Show","ispublic":1,"isfriend":0,"isfamily":0},{"id":"14651003938","owner":"99029781@N03","secret":"bff5f1f457","server":"3915","farm":4,"title":"62nd Denbigh Agricultural, Industrial and Food Show","ispublic":1,"isfriend":0,"isfamily":0},{"id":"14166534128","owner":"47647589@N07","secret":"7a9e33d4df","server":"5311","farm":6,"title":"Lafayette College - 179th Commencement - Library Tour and Podium Party Robing","ispublic":1,"isfriend":0,"isfamily":0},{"id":"14351603982","owner":"47647589@N07","secret":"8f5f8904a9","server":"5540","farm":6,"title":"Lafayette College - 179th Commencement - Library Tour and Podium Party Robing","ispublic":1,"isfriend":0,"isfamily":0},{"id":"14166533008","owner":"47647589@N07","secret":"1fb2191ac7","server":"2927","farm":3,"title":"Lafayette College - 179th Commencement - Library Tour and Podium Party Robing","ispublic":1,"isfriend":0,"isfamily":0},{"id":"14166512579","owner":"47647589@N07","secret":"97d5571612","server":"2933","farm":3,"title":"Lafayette College \u2013 179th Commencement 2014","ispublic":1,"isfriend":0,"isfamily":0},{"id":"14349847631","owner":"47647589@N07","secret":"375306728d","server":"5551","farm":6,"title":"Lafayette College - 179th Commencement - Library Tour and Podium Party Robing","ispublic":1,"isfriend":0,"isfamily":0},{"id":"14373354593","owner":"47647589@N07","secret":"7cd5743171","server":"2905","farm":3,"title":"Lafayette College - 179th Commencement - Library Tour and Podium Party Robing","ispublic":1,"isfriend":0,"isfamily":0},{"id":"14166535108","owner":"47647589@N07","secret":"f8307d5bfa","server":"2920","farm":3,"title":"Lafayette College - 179th Commencement - Library Tour and Podium Party Robing","ispublic":1,"isfriend":0,"isfamily":0},{"id":"14349850931","owner":"47647589@N07","secret":"154d208205","server":"2916","farm":3,"title":"Lafayette College \u2013 179th Commencement 2014","ispublic":1,"isfriend":0,"isfamily":0},{"id":"14373082703","owner":"47647589@N07","secret":"c3de7f203b","server":"5033","farm":6,"title":"Lafayette College \u2013 179th Commencement 2014","ispublic":1,"isfriend":0,"isfamily":0},{"id":"14259885756","owner":"47647589@N07","secret":"1b30f05b2d","server":"3757","farm":4,"title":"Lafayette College \u2013 179th Commencement 2014","ispublic":1,"isfriend":0,"isfamily":0},{"id":"14096431767","owner":"47647589@N07","secret":"a702524905","server":"2906","farm":3,"title":"Lafayette College \u2013 179th Commencement 2014","ispublic":1,"isfriend":0,"isfamily":0},{"id":"14096396370","owner":"47647589@N07","secret":"efe8e0c2ab","server":"2917","farm":3,"title":"Lafayette College \u2013 179th Commencement 2014","ispublic":1,"isfriend":0,"isfamily":0},{"id":"14280978922","owner":"47647589@N07","secret":"c1fd7d991a","server":"3701","farm":4,"title":"Lafayette College \u2013 179th Commencement 2014","ispublic":1,"isfriend":0,"isfamily":0},{"id":"14303192373","owner":"47647589@N07","secret":"6bb14dfe9c","server":"5535","farm":6,"title":"Lafayette College \u2013 179th Commencement 2014","ispublic":1,"isfriend":0,"isfamily":0},{"id":"14096391550","owner":"47647589@N07","secret":"53fd57dd88","server":"2934","farm":3,"title":"Lafayette College \u2013 179th Commencement 2014","ispublic":1,"isfriend":0,"isfamily":0},{"id":"14096432877","owner":"47647589@N07","secret":"ed658e03e7","server":"2930","farm":3,"title":"Lafayette College \u2013 179th Commencement 2014","ispublic":1,"isfriend":0,"isfamily":0},{"id":"14282525294","owner":"47647589@N07","secret":"877412093d","server":"5272","farm":6,"title":"Lafayette College \u2013 179th Commencement 2014","ispublic":1,"isfriend":0,"isfamily":0},{"id":"14096359798","owner":"47647589@N07","secret":"f0322bbf5e","server":"3740","farm":4,"title":"Lafayette College \u2013 179th Commencement 2014","ispublic":1,"isfriend":0,"isfamily":0},{"id":"14096413057","owner":"47647589@N07","secret":"68b15caabc","server":"2928","farm":3,"title":"Lafayette College \u2013 179th Commencement 2014","ispublic":1,"isfriend":0,"isfamily":0},{"id":"14096342078","owner":"47647589@N07","secret":"5d04b1ba17","server":"2902","farm":3,"title":"Lafayette College \u2013 179th Commencement 2014","ispublic":1,"isfriend":0,"isfamily":0},{"id":"14096403077","owner":"47647589@N07","secret":"b33542a083","server":"3767","farm":4,"title":"Lafayette College \u2013 179th Commencement 2014","ispublic":1,"isfriend":0,"isfamily":0},{"id":"14835263964","owner":"99029781@N03","secret":"5fbd1cc4e2","server":"5557","farm":6,"title":"62nd Denbigh Agricultural, Industrial and Food Show","ispublic":1,"isfriend":0,"isfamily":0}]},"stat":"ok"}